{
  "project_info": {
    "project_number": "316334383098",
    "firebase_url": "https://neighborhood-2c6cc.firebaseio.com",
    "project_id": "neighborhood-2c6cc",
    "storage_bucket": "neighborhood-2c6cc.appspot.com"
  },
  "client": [
    {
      "client_info": {
        "mobilesdk_app_id": "1:316334383098:android:32d40fe2cad8ae4e",
        "android_client_info": {
          "package_name": "com.sachtechsolution.abhishek.neighbourhood"
        }
      },
      "oauth_client": [
        {
          "client_id": "316334383098-20bkmqf7ppcecbisab54a5uapbjg0soh.apps.googleusercontent.com",
          "client_type": 1,
          "android_info": {
            "package_name": "com.sachtechsolution.abhishek.neighbourhood",
            "certificate_hash": "bc979ead60d61b390d8dec513e595d0f12401b92"
          }
        },
        {
          "client_id": "316334383098-40a68b9uqed129ulppmin0pvvfkb37nn.apps.googleusercontent.com",
          "client_type": 1,
          "android_info": {
            "package_name": "com.sachtechsolution.abhishek.neighbourhood",
            "certificate_hash": "e91c757447ac241f305f5c0fcfd2cde34b30e177"
          }
        },
        {
          "client_id": "316334383098-7dc0da6k97viqrv8ok8re8pek6r3vf91.apps.googleusercontent.com",
          "client_type": 3
        }
      ],
      "api_key": [
        {
          "current_key": "AIzaSyCeqAO0IOkW7rCn-0C3uJh9MfsqmUUikBI"
        }
      ],
      "services": {
        "analytics_service": {
          "status": 1
        },
        "appinvite_service": {
          "status": 2,
          "other_platform_oauth_client": [
            {
              "client_id": "316334383098-7dc0da6k97viqrv8ok8re8pek6r3vf91.apps.googleusercontent.com",
              "client_type": 3
            }
          ]
        },
        "ads_service": {
          "status": 2
        }
      }
    }
  ],
  "configuration_version": "1"
}